@startuml

hide empty description
[*] --> Strona_logowania
Strona_logowania -->Uzytkownicy : udalo sie zalgowac
Strona_logowania -->Nowe_konto : zaloz nowe konto
Uzytkownicy : Lekarz, Kierownik, Pacjent, Ksiegowa
Nowe_konto : Lekarz, Kierownik, Pacjent, Ksiegowa
Strona_logowania --> Strona_logowania : nie udalo sie zalogowac
Nowe_konto --> Lekarz : Lekarz
Nowe_konto --> Pacjent : Pacjent
Nowe_konto --> Ksiegowa : Ksiegowa
Nowe_konto --> Kierownik : Kierownik
Uzytkownicy --> Lekarz
Uzytkownicy --> Ksiegowa
Uzytkownicy --> Kierownik
Uzytkownicy --> Pacjent
Lekarz : upawnienia :
Lekarz : dodaj/edytuj pacjenta,
Lekarz : dodaj/edytuj lekarza,
Lekarz : dodaj/zmien termin wizyty
Kierownik : uprawnienia:
Kierownik :  dodaj/edytuj pacjenta,
Kierownik :  dodaj/edytuj lekarza,
Kierownik :  dodaj/zmien termin wizyty
Kierownik : wyszukiwarka badan
Kierownik : historia zmian
Kierownik : potrzebne leki
Kierownik : panel ksiegowej (odczyt)
Pacjent : uprawnieia:
Pacjent : dodaj/zmien termin wizyty
Ksiegowa : uprawnienia:
Ksiegowa : potrzebne leki
Ksiegowa : panel ksiegowej (edycja)
Ksiegowa --> Panel_ksiegowej : edycja/odczyt
Kierownik --> Panel_ksiegowej : odczyt
Kierownik --> Baza_pacjenta
Lekarz --> Baza_pacjenta
Baza_pacjenta --> Dodaj_pacjenta
Baza_pacjenta --> Edytuj_pacjenta
Baza_pacjenta : dane osobowe
Baza_pacjenta : historia choroby
Baza_pacjenta : historia wizyt
Kierownik --> Baza_lekarza
Lekarz --> Baza_lekarza
Baza_lekarza --> Dodaj_lekarza
Baza_lekarza --> Szukaj_lekarza
Szukaj_lekarza --> Edytuj_lekarza : znaleziony
Szukaj_lekarza --> Wyswietl_lekarza : znaleziony
Szukaj_lekarza --> Szukaj_lekarza : nieznaleziony
Wyswietl_lekarza : stanowisko
Wyswietl_lekarza : dane pracownika
Wyswietl_lekarza : harmonogram pracy
Kierownik --> Termin_wizyty
Lekarz --> Termin_wizyty
Pacjent --> Termin_wizyty
Termin_wizyty --> Dodaj_termin
Dodaj_termin --> Nowa_karta_pacjenta : poprawne dane
Dodaj_termin --> Dodaj_termin  : niepoprawne dane
Kierownik --> Wyszukiwarka
Wyszukiwarka : Badania
Wyszukiwarka : Terminy
Wyszukiwarka : Uslugi
Kierownik --> Leki
Leki --> Zamowienia
Leki --> Edycja
Zamowienia : Generowanie zapowienia do hurtowni
Kierownik --> Historia_zmian_w_programie
Historia_zmian_w_programie --> Szukaj
Szukaj : po dacie
Szukaj : po zmianach
Szukaj : po prawach dostepu
Panel_ksiegowej --> Wyszukiwanie
Wyszukiwanie : data
Wyszukiwanie : cena
Wyszukiwanie : cena kosztow zewn.
Wyszukiwanie --> Generuj_raport
Wyszukiwanie --> Wyszukiwanie : szukaj jeszcze raz


@enduml